^D:\HBS\MMW\BLOG\CORKLIBRARY\SRC\CORK.CPP
/c /I..\SRC /I..\SRC\ACCEL /I..\SRC\FILE_FORMATS /I..\SRC\ISCT /I..\SRC\MATH /I..\SRC\MESH /I..\SRC\RAWMESH /I..\SRC\UTIL /Zi /nologo /W3 /WX- /sdl /O2 /Oi /GL /D _USE_MATH_DEFINES /D NOMINMAX /D _CRT_SECURE_NO_WARNINGS /D NO_TIMER /D TRILIBRARY /D _UNICODE /D UNICODE /Gm- /EHsc /MD /GS /Gy /fp:precise /Zc:wchar_t /Zc:forScope /Zc:inline /Fo"X64\RELEASE\\" /Fd"X64\RELEASE\VC140.PDB" /Gd /TP D:\HBS\MMW\BLOG\CORKLIBRARY\SRC\CORK.CPP
^D:\HBS\MMW\BLOG\CORKLIBRARY\SRC\FILE_FORMATS\FILES.CPP
/c /I..\SRC /I..\SRC\ACCEL /I..\SRC\FILE_FORMATS /I..\SRC\ISCT /I..\SRC\MATH /I..\SRC\MESH /I..\SRC\RAWMESH /I..\SRC\UTIL /Zi /nologo /W3 /WX- /sdl /O2 /Oi /GL /D _USE_MATH_DEFINES /D NOMINMAX /D _CRT_SECURE_NO_WARNINGS /D NO_TIMER /D TRILIBRARY /D _UNICODE /D UNICODE /Gm- /EHsc /MD /GS /Gy /fp:precise /Zc:wchar_t /Zc:forScope /Zc:inline /Fo"X64\RELEASE\\" /Fd"X64\RELEASE\VC140.PDB" /Gd /TP D:\HBS\MMW\BLOG\CORKLIBRARY\SRC\FILE_FORMATS\FILES.CPP
^D:\HBS\MMW\BLOG\CORKLIBRARY\SRC\FILE_FORMATS\IFS.CPP
/c /I..\SRC /I..\SRC\ACCEL /I..\SRC\FILE_FORMATS /I..\SRC\ISCT /I..\SRC\MATH /I..\SRC\MESH /I..\SRC\RAWMESH /I..\SRC\UTIL /Zi /nologo /W3 /WX- /sdl /O2 /Oi /GL /D _USE_MATH_DEFINES /D NOMINMAX /D _CRT_SECURE_NO_WARNINGS /D NO_TIMER /D TRILIBRARY /D _UNICODE /D UNICODE /Gm- /EHsc /MD /GS /Gy /fp:precise /Zc:wchar_t /Zc:forScope /Zc:inline /Fo"X64\RELEASE\\" /Fd"X64\RELEASE\VC140.PDB" /Gd /TP D:\HBS\MMW\BLOG\CORKLIBRARY\SRC\FILE_FORMATS\IFS.CPP
^D:\HBS\MMW\BLOG\CORKLIBRARY\SRC\FILE_FORMATS\OFF.CPP
/c /I..\SRC /I..\SRC\ACCEL /I..\SRC\FILE_FORMATS /I..\SRC\ISCT /I..\SRC\MATH /I..\SRC\MESH /I..\SRC\RAWMESH /I..\SRC\UTIL /Zi /nologo /W3 /WX- /sdl /O2 /Oi /GL /D _USE_MATH_DEFINES /D NOMINMAX /D _CRT_SECURE_NO_WARNINGS /D NO_TIMER /D TRILIBRARY /D _UNICODE /D UNICODE /Gm- /EHsc /MD /GS /Gy /fp:precise /Zc:wchar_t /Zc:forScope /Zc:inline /Fo"X64\RELEASE\\" /Fd"X64\RELEASE\VC140.PDB" /Gd /TP D:\HBS\MMW\BLOG\CORKLIBRARY\SRC\FILE_FORMATS\OFF.CPP
^D:\HBS\MMW\BLOG\CORKLIBRARY\SRC\ISCT\EMPTY3D.CPP
/c /I..\SRC /I..\SRC\ACCEL /I..\SRC\FILE_FORMATS /I..\SRC\ISCT /I..\SRC\MATH /I..\SRC\MESH /I..\SRC\RAWMESH /I..\SRC\UTIL /Zi /nologo /W3 /WX- /sdl /O2 /Oi /GL /D _USE_MATH_DEFINES /D NOMINMAX /D _CRT_SECURE_NO_WARNINGS /D NO_TIMER /D TRILIBRARY /D _UNICODE /D UNICODE /Gm- /EHsc /MD /GS /Gy /fp:precise /Zc:wchar_t /Zc:forScope /Zc:inline /Fo"X64\RELEASE\\" /Fd"X64\RELEASE\VC140.PDB" /Gd /TP D:\HBS\MMW\BLOG\CORKLIBRARY\SRC\ISCT\EMPTY3D.CPP
^D:\HBS\MMW\BLOG\CORKLIBRARY\SRC\ISCT\QUANTIZATION.CPP
/c /I..\SRC /I..\SRC\ACCEL /I..\SRC\FILE_FORMATS /I..\SRC\ISCT /I..\SRC\MATH /I..\SRC\MESH /I..\SRC\RAWMESH /I..\SRC\UTIL /Zi /nologo /W3 /WX- /sdl /O2 /Oi /GL /D _USE_MATH_DEFINES /D NOMINMAX /D _CRT_SECURE_NO_WARNINGS /D NO_TIMER /D TRILIBRARY /D _UNICODE /D UNICODE /Gm- /EHsc /MD /GS /Gy /fp:precise /Zc:wchar_t /Zc:forScope /Zc:inline /Fo"X64\RELEASE\\" /Fd"X64\RELEASE\VC140.PDB" /Gd /TP D:\HBS\MMW\BLOG\CORKLIBRARY\SRC\ISCT\QUANTIZATION.CPP
^D:\HBS\MMW\BLOG\CORKLIBRARY\SRC\MAIN.CPP
/c /I..\SRC /I..\SRC\ACCEL /I..\SRC\FILE_FORMATS /I..\SRC\ISCT /I..\SRC\MATH /I..\SRC\MESH /I..\SRC\RAWMESH /I..\SRC\UTIL /Zi /nologo /W3 /WX- /sdl /O2 /Oi /GL /D _USE_MATH_DEFINES /D NOMINMAX /D _CRT_SECURE_NO_WARNINGS /D NO_TIMER /D TRILIBRARY /D _UNICODE /D UNICODE /Gm- /EHsc /MD /GS /Gy /fp:precise /Zc:wchar_t /Zc:forScope /Zc:inline /Fo"X64\RELEASE\\" /Fd"X64\RELEASE\VC140.PDB" /Gd /TP D:\HBS\MMW\BLOG\CORKLIBRARY\SRC\MAIN.CPP
^D:\HBS\MMW\BLOG\CORKLIBRARY\SRC\UTIL\LOG.CPP
/c /I..\SRC /I..\SRC\ACCEL /I..\SRC\FILE_FORMATS /I..\SRC\ISCT /I..\SRC\MATH /I..\SRC\MESH /I..\SRC\RAWMESH /I..\SRC\UTIL /Zi /nologo /W3 /WX- /sdl /O2 /Oi /GL /D _USE_MATH_DEFINES /D NOMINMAX /D _CRT_SECURE_NO_WARNINGS /D NO_TIMER /D TRILIBRARY /D _UNICODE /D UNICODE /Gm- /EHsc /MD /GS /Gy /fp:precise /Zc:wchar_t /Zc:forScope /Zc:inline /Fo"X64\RELEASE\\" /Fd"X64\RELEASE\VC140.PDB" /Gd /TP D:\HBS\MMW\BLOG\CORKLIBRARY\SRC\UTIL\LOG.CPP
^D:\HBS\MMW\BLOG\CORKLIBRARY\SRC\UTIL\TIMER.CPP
/c /I..\SRC /I..\SRC\ACCEL /I..\SRC\FILE_FORMATS /I..\SRC\ISCT /I..\SRC\MATH /I..\SRC\MESH /I..\SRC\RAWMESH /I..\SRC\UTIL /Zi /nologo /W3 /WX- /sdl /O2 /Oi /GL /D _USE_MATH_DEFINES /D NOMINMAX /D _CRT_SECURE_NO_WARNINGS /D NO_TIMER /D TRILIBRARY /D _UNICODE /D UNICODE /Gm- /EHsc /MD /GS /Gy /fp:precise /Zc:wchar_t /Zc:forScope /Zc:inline /Fo"X64\RELEASE\\" /Fd"X64\RELEASE\VC140.PDB" /Gd /TP D:\HBS\MMW\BLOG\CORKLIBRARY\SRC\UTIL\TIMER.CPP
^D:\HBS\MMW\BLOG\CORKLIBRARY\SRC\ISCT\TRIANGLE.C
/c /I..\SRC /I..\SRC\ACCEL /I..\SRC\FILE_FORMATS /I..\SRC\ISCT /I..\SRC\MATH /I..\SRC\MESH /I..\SRC\RAWMESH /I..\SRC\UTIL /Zi /nologo /W3 /WX- /sdl /O2 /Oi /GL /D _USE_MATH_DEFINES /D NOMINMAX /D _CRT_SECURE_NO_WARNINGS /D NO_TIMER /D TRILIBRARY /D _UNICODE /D UNICODE /Gm- /EHsc /MD /GS /Gy /fp:precise /Zc:wchar_t /Zc:forScope /Zc:inline /Fo"X64\RELEASE\\" /Fd"X64\RELEASE\VC140.PDB" /Gd /TC D:\HBS\MMW\BLOG\CORKLIBRARY\SRC\ISCT\TRIANGLE.C
