^D:\HBS\MMW\BLOG\CORKLIBRARY\SRC\CORK.CPP|D:\HBS\MMW\BLOG\CORKLIBRARY\SRC\FILE_FORMATS\FILES.CPP|D:\HBS\MMW\BLOG\CORKLIBRARY\SRC\FILE_FORMATS\IFS.CPP|D:\HBS\MMW\BLOG\CORKLIBRARY\SRC\FILE_FORMATS\OFF.CPP|D:\HBS\MMW\BLOG\CORKLIBRARY\SRC\ISCT\EMPTY3D.CPP|D:\HBS\MMW\BLOG\CORKLIBRARY\SRC\ISCT\QUANTIZATION.CPP|D:\HBS\MMW\BLOG\CORKLIBRARY\SRC\MAIN.CPP|D:\HBS\MMW\BLOG\CORKLIBRARY\SRC\UTIL\LOG.CPP|D:\HBS\MMW\BLOG\CORKLIBRARY\SRC\UTIL\TIMER.CPP
D:\HBS\MMW\BLOG\CORKLIBRARY\CORKLIBRARY\X64\RELEASE\VC140.PDB
D:\HBS\MMW\BLOG\CORKLIBRARY\CORKLIBRARY\X64\RELEASE\TIMER.OBJ
D:\HBS\MMW\BLOG\CORKLIBRARY\CORKLIBRARY\X64\RELEASE\LOG.OBJ
D:\HBS\MMW\BLOG\CORKLIBRARY\CORKLIBRARY\X64\RELEASE\MAIN.OBJ
D:\HBS\MMW\BLOG\CORKLIBRARY\CORKLIBRARY\X64\RELEASE\QUANTIZATION.OBJ
D:\HBS\MMW\BLOG\CORKLIBRARY\CORKLIBRARY\X64\RELEASE\EMPTY3D.OBJ
D:\HBS\MMW\BLOG\CORKLIBRARY\CORKLIBRARY\X64\RELEASE\OFF.OBJ
D:\HBS\MMW\BLOG\CORKLIBRARY\CORKLIBRARY\X64\RELEASE\IFS.OBJ
D:\HBS\MMW\BLOG\CORKLIBRARY\CORKLIBRARY\X64\RELEASE\FILES.OBJ
D:\HBS\MMW\BLOG\CORKLIBRARY\CORKLIBRARY\X64\RELEASE\CORK.OBJ
^D:\HBS\MMW\BLOG\CORKLIBRARY\SRC\CORK.CPP
D:\HBS\MMW\BLOG\CORKLIBRARY\CORKLIBRARY\X64\RELEASE\VC140.PDB
^D:\HBS\MMW\BLOG\CORKLIBRARY\SRC\FILE_FORMATS\FILES.CPP
D:\HBS\MMW\BLOG\CORKLIBRARY\CORKLIBRARY\X64\RELEASE\VC140.PDB
^D:\HBS\MMW\BLOG\CORKLIBRARY\SRC\FILE_FORMATS\IFS.CPP
D:\HBS\MMW\BLOG\CORKLIBRARY\CORKLIBRARY\X64\RELEASE\VC140.PDB
^D:\HBS\MMW\BLOG\CORKLIBRARY\SRC\FILE_FORMATS\OFF.CPP
D:\HBS\MMW\BLOG\CORKLIBRARY\CORKLIBRARY\X64\RELEASE\VC140.PDB
^D:\HBS\MMW\BLOG\CORKLIBRARY\SRC\ISCT\EMPTY3D.CPP
D:\HBS\MMW\BLOG\CORKLIBRARY\CORKLIBRARY\X64\RELEASE\VC140.PDB
^D:\HBS\MMW\BLOG\CORKLIBRARY\SRC\ISCT\QUANTIZATION.CPP
D:\HBS\MMW\BLOG\CORKLIBRARY\CORKLIBRARY\X64\RELEASE\VC140.PDB
^D:\HBS\MMW\BLOG\CORKLIBRARY\SRC\MAIN.CPP
D:\HBS\MMW\BLOG\CORKLIBRARY\CORKLIBRARY\X64\RELEASE\VC140.PDB
^D:\HBS\MMW\BLOG\CORKLIBRARY\SRC\UTIL\LOG.CPP
D:\HBS\MMW\BLOG\CORKLIBRARY\CORKLIBRARY\X64\RELEASE\VC140.PDB
^D:\HBS\MMW\BLOG\CORKLIBRARY\SRC\UTIL\TIMER.CPP
D:\HBS\MMW\BLOG\CORKLIBRARY\CORKLIBRARY\X64\RELEASE\VC140.PDB
^D:\HBS\MMW\BLOG\CORKLIBRARY\SRC\ISCT\TRIANGLE.C
D:\HBS\MMW\BLOG\CORKLIBRARY\CORKLIBRARY\X64\RELEASE\VC140.PDB
D:\HBS\MMW\BLOG\CORKLIBRARY\CORKLIBRARY\X64\RELEASE\TRIANGLE.OBJ
