^D:\HBS\MMW\BLOG\CORKLIBRARY\SRC\CORK.CPP|D:\HBS\MMW\BLOG\CORKLIBRARY\SRC\FILE_FORMATS\FILES.CPP|D:\HBS\MMW\BLOG\CORKLIBRARY\SRC\FILE_FORMATS\IFS.CPP|D:\HBS\MMW\BLOG\CORKLIBRARY\SRC\FILE_FORMATS\OFF.CPP|D:\HBS\MMW\BLOG\CORKLIBRARY\SRC\ISCT\EMPTY3D.CPP|D:\HBS\MMW\BLOG\CORKLIBRARY\SRC\ISCT\QUANTIZATION.CPP|D:\HBS\MMW\BLOG\CORKLIBRARY\SRC\MAIN.CPP|D:\HBS\MMW\BLOG\CORKLIBRARY\SRC\UTIL\LOG.CPP|D:\HBS\MMW\BLOG\CORKLIBRARY\SRC\UTIL\TIMER.CPP
D:\HBS\MMW\BLOG\CORKLIBRARY\CORKLIBRARY\X64\DEBUG\VC140.PDB
D:\HBS\MMW\BLOG\CORKLIBRARY\CORKLIBRARY\X64\DEBUG\VC140.IDB
D:\HBS\MMW\BLOG\CORKLIBRARY\CORKLIBRARY\X64\DEBUG\CORK.OBJ
D:\HBS\MMW\BLOG\CORKLIBRARY\CORKLIBRARY\X64\DEBUG\FILES.OBJ
D:\HBS\MMW\BLOG\CORKLIBRARY\CORKLIBRARY\X64\DEBUG\IFS.OBJ
D:\HBS\MMW\BLOG\CORKLIBRARY\CORKLIBRARY\X64\DEBUG\OFF.OBJ
D:\HBS\MMW\BLOG\CORKLIBRARY\CORKLIBRARY\X64\DEBUG\EMPTY3D.OBJ
D:\HBS\MMW\BLOG\CORKLIBRARY\CORKLIBRARY\X64\DEBUG\QUANTIZATION.OBJ
D:\HBS\MMW\BLOG\CORKLIBRARY\CORKLIBRARY\X64\DEBUG\MAIN.OBJ
D:\HBS\MMW\BLOG\CORKLIBRARY\CORKLIBRARY\X64\DEBUG\LOG.OBJ
D:\HBS\MMW\BLOG\CORKLIBRARY\CORKLIBRARY\X64\DEBUG\TIMER.OBJ
^D:\HBS\MMW\BLOG\CORKLIBRARY\SRC\CORK.CPP
D:\HBS\MMW\BLOG\CORKLIBRARY\CORKLIBRARY\X64\DEBUG\VC140.PDB
^D:\HBS\MMW\BLOG\CORKLIBRARY\SRC\FILE_FORMATS\FILES.CPP
D:\HBS\MMW\BLOG\CORKLIBRARY\CORKLIBRARY\X64\DEBUG\VC140.PDB
^D:\HBS\MMW\BLOG\CORKLIBRARY\SRC\FILE_FORMATS\IFS.CPP
D:\HBS\MMW\BLOG\CORKLIBRARY\CORKLIBRARY\X64\DEBUG\VC140.PDB
^D:\HBS\MMW\BLOG\CORKLIBRARY\SRC\FILE_FORMATS\OFF.CPP
D:\HBS\MMW\BLOG\CORKLIBRARY\CORKLIBRARY\X64\DEBUG\VC140.PDB
^D:\HBS\MMW\BLOG\CORKLIBRARY\SRC\ISCT\EMPTY3D.CPP
D:\HBS\MMW\BLOG\CORKLIBRARY\CORKLIBRARY\X64\DEBUG\VC140.PDB
^D:\HBS\MMW\BLOG\CORKLIBRARY\SRC\ISCT\QUANTIZATION.CPP
D:\HBS\MMW\BLOG\CORKLIBRARY\CORKLIBRARY\X64\DEBUG\VC140.PDB
^D:\HBS\MMW\BLOG\CORKLIBRARY\SRC\MAIN.CPP
D:\HBS\MMW\BLOG\CORKLIBRARY\CORKLIBRARY\X64\DEBUG\VC140.PDB
^D:\HBS\MMW\BLOG\CORKLIBRARY\SRC\UTIL\LOG.CPP
D:\HBS\MMW\BLOG\CORKLIBRARY\CORKLIBRARY\X64\DEBUG\VC140.PDB
^D:\HBS\MMW\BLOG\CORKLIBRARY\SRC\UTIL\TIMER.CPP
D:\HBS\MMW\BLOG\CORKLIBRARY\CORKLIBRARY\X64\DEBUG\VC140.PDB
^D:\HBS\MMW\BLOG\CORKLIBRARY\SRC\ISCT\TRIANGLE.C
D:\HBS\MMW\BLOG\CORKLIBRARY\CORKLIBRARY\X64\DEBUG\VC140.PDB
D:\HBS\MMW\BLOG\CORKLIBRARY\CORKLIBRARY\X64\DEBUG\VC140.IDB
D:\HBS\MMW\BLOG\CORKLIBRARY\CORKLIBRARY\X64\DEBUG\TRIANGLE.OBJ
